// Jest Snapshot v1, https://goo.gl/fbAQLP

exports[`renders correctly 1`] = `
<div
  className="roster-grid"
>
  <div
    className="container"
  >
    <div
      className="section-title"
    >
      <h1>
        Our Employees
      </h1>
    </div>
    <div
      className="roster-grid-content"
    >
      <div
        className="row"
      >
        <div
          className="col-12 col-lg-4"
        >
          <div
            className="employee-card"
            onClick={[Function]}
          >
            <div
              className="employee-card-image"
            >
              <img
                alt=""
              />
            </div>
            <div
              className="employee-card-content"
            >
              <div
                className="employee-card-content-title"
              >
                
              </div>
              <div
                className="employee-card-content-excerpt"
              >
                
              </div>
            </div>
          </div>
        </div>
        <div
          className="col-12 col-lg-4"
        >
          <div
            className="employee-card"
            onClick={[Function]}
          >
            <div
              className="employee-card-image"
            >
              <img
                alt=""
              />
            </div>
            <div
              className="employee-card-content"
            >
              <div
                className="employee-card-content-title"
              >
                
              </div>
              <div
                className="employee-card-content-excerpt"
              >
                
              </div>
            </div>
          </div>
        </div>
      </div>
    </div>
  </div>
</div>
`;
